{
  "project_info": {
    "project_number": "888461748050",
    "firebase_url": "https://beauty-pass-admin.firebaseio.com",
    "project_id": "beauty-pass-admin",
    "storage_bucket": "beauty-pass-admin.appspot.com"
  },
  "client": [
    {
      "client_info": {
        "mobilesdk_app_id": "1:888461748050:android:a39bf2f9b29e8b0292bc8b",
        "android_client_info": {
          "package_name": "com.br.beautypass"
        }
      },
      "oauth_client": [
        {
          "client_id": "888461748050-sh1kgjl62asrtka9gggsogqonhokhbmj.apps.googleusercontent.com",
          "client_type": 3
        }
      ],
      "api_key": [
        {
          "current_key": "AIzaSyDLokEERr-JItBXF7IKNrm4UyICMvMXJsI"
        }
      ],
      "services": {
        "appinvite_service": {
          "other_platform_oauth_client": [
            {
              "client_id": "888461748050-sh1kgjl62asrtka9gggsogqonhokhbmj.apps.googleusercontent.com",
              "client_type": 3
            }
          ]
        }
      }
    }
  ],
  "configuration_version": "1"
}